{
  "type": "service_account",
  "project_id": "valued-bivouac-205720",
  "private_key_id": "a16b0a7541fc7c4f8a6bb468bb8dfc4016a60ddd",
  "private_key": "-----BEGIN PRIVATE KEY-----\nMIIEvQIBADANBgkqhkiG9w0BAQEFAASCBKcwggSjAgEAAoIBAQDWkP50ogi+VCLx\nfx7liTpr6IjXecwjxQHuoHMIwTb6YDR2sSEjy4ExxKWS2Me9bq8oIgrLNXAn5eYN\nCvVndiD3D+WJvym1y3AqtmJUEUk/RpnaOssTKtYlC3D1AuxmDRNyXicW1sY7te1y\ntCj1o7F9fwM27mSYlO5gN3Toht1XDoEMfF488ZFEM9hrVHXP6OAKvh+l2w4NtOLI\nrTPma6D0ht5hizB462BaC3g3iMZ12ag2YN3ruLnqd6ZWyDEuRrW6gL8Q9LX+qBCG\npShyprCxtE44zFP0sWH71Ubyc5EEhipMKQi30evNY9TCUTo9+cSBZxKmxbt5eLuf\nY4HEzcgLAgMBAAECggEAYUQ3ZY3yor0nXgx/aBRuXG58Yhm/ldOADbnEjApyrsuf\n3NJtMHnXZkU7vbbxzQj49BuCgx4FasDIKc928eDWDsmxB2GWOegwP9yP9IYliz6p\nDgmq91Rq4T4vhZI+sgBpeWX/GFZiZL0TF/VdwATlt/s07Nji11xkN0/MeoBwpD6F\nWRtacC4sz7ZjMPE1ncqHjFjQ1Q3EeHtoJh/kqArfkG3tdoZRUt9h1PiMVnJYJAgS\n7odcx5eYUwtghWQqJUMp8tDFttAn7oMTPzGT9ysIldSog89afBI81LcuGum866lE\nSoqXEC+YDsTWYkBX9soF6EwFMSjPvhP28tRssTuEkQKBgQDysBsJ1RFqPWN2WdIR\nr8V9Ni1iNjHWvisqkwb21keUE5LJdlz608AbSxx4wOKEL7wdVTl3n1Y+5VRGvTHh\nKwQRQntsZONyIh3P4dKLQ/7mikIY/8ifbxXe9n4Owkw7YvtD3WgHaIKp4TeuB4DK\nQWh+o/gO2y82/c2LShHxB9npEwKBgQDiVf9kzJW4NsqRRxPHkJRBkfHitJmLxYWY\nYfl0OHI584KSbcWTXHQRagLZP1uAhyMF7rkXfz9DkI/+USOKCQ6NJtE/EEiHDx8N\nMJ3RF744vHTVRPEBAINQ+5p+STIdnhyGxO7IFjeEC694x332jBdJK84dk1YxbPHm\nJLUWFn08KQKBgHnYgTrGhx/YAoABSL8oiPb8pHySySMQB4wwlWaI3xcxXJlZnAUz\nG1iYtYrLDO9hKAlyKJAup5acfVum0cxDVJ91yZH6dVdwWZdtwc+6K9iDwfvbMFcb\n5tcy2sd+Ndf7Mjw4hWpyxmeUc+gkTD0/6b7rhDexRFtPwksUvT1Ou9GRAoGAdqy2\n0+h9nHCGODR3h40kX1kh5kfhtqrjyKmefbTXF9G5pgOOtBym8zaNtdGFrdeton+w\nZ0SeLFQRXDy5ELh8+7/duV5VWROxqV3Tcf4sDF2sOOMEJw1YzU6PjCXe9C6iMHvz\n48/aXg8ue3rGbk64KvKgCVvmttWz5INcu+8gzTkCgYEA8nkzjTP5IV1XlsueqPT+\nJHqBsqomMahmg3MDbcsk2rctJrA3iJ8dCmvrHJcjT3c4VEzaEyTzB5WnpJi4Ekoo\n83HlIMBO2/Kx4jfbA6QzabokcRTyikKB0nwk74ni519nIlvUhYjjHsoyjZAO0e5d\nvEHp8+tAiAeLYvVU4zqKI88=\n-----END PRIVATE KEY-----\n",
  "client_email": "deepshikha@valued-bivouac-205720.iam.gserviceaccount.com",
  "client_id": "102739444984860831628",
  "auth_uri": "https://accounts.google.com/o/oauth2/auth",
  "token_uri": "https://oauth2.googleapis.com/token",
  "auth_provider_x509_cert_url": "https://www.googleapis.com/oauth2/v1/certs",
  "client_x509_cert_url": "https://www.googleapis.com/robot/v1/metadata/x509/deepshikha%40valued-bivouac-205720.iam.gserviceaccount.com"
}
